<?xml version="1.0" encoding="UTF-8" standalone="no"?>
<svg xmlns:svg="http://www.w3.org/2000/svg" xmlns="http://www.w3.org/2000/svg" version="1.1" viewBox="0 0 360 185">
<!-- Created with the Wikimedia parliament diagram creator (http://parliamentdiagram.toolforge.org/parliamentinputform.html) -->
<!-- generated by the elexnuk/arches web application (https://arches.elexn.uk/) -->
<g><text x="175" y="175"
                style="font-size:36px;font-weight:bold;text-align:center;text-anchor:middle;font-family:sans-serif;">
                100
            </text>
<g 
                    style="fill: #795841; 
                    stroke-width: 0; 
                    stroke: #000000;" 
                    id="Unionist-Party_0"><title>Unionist Party</title><circle cx="13.466577812846875"
                                    cy="173.33688718291546"
                                    r="6.666666666666667" />
<circle cx="30.14802627490087"
                                    cy="173.3377203081682"
                                    r="6.666666666666667" />
<circle cx="46.83315982922342"
                                    cy="173.33888472486635"
                                    r="6.666666666666667" />
<circle cx="63.523550581111095"
                                    cy="173.34058246690242"
                                    r="6.666666666666667" />
<circle cx="80.22181115029736"
                                    cy="173.34319672266972"
                                    r="6.666666666666667" />
<circle cx="96.93262334324699"
                                    cy="173.34752829321545"
                                    r="6.666666666666667" />
<circle cx="16.000855020107036"
                                    cy="150.30053496034273"
                                    r="6.666666666666667" />
<circle cx="33.14390574557926"
                                    cy="149.4502441853181"
                                    r="6.666666666666667" />
<circle cx="50.14442059477497"
                                    cy="149.74597092764213"
                                    r="6.666666666666667" />
<circle cx="67.66501644919045"
                                    cy="148.5045625248599"
                                    r="6.666666666666667" />
<circle cx="84.99230189949597"
                                    cy="148.79844071775446"
                                    r="6.666666666666667" />
<circle cx="21.706130979145083"
                                    cy="127.83843552781212"
                                    r="6.666666666666667" />
<circle cx="39.92271210952404"
                                    cy="126.34971186238866"
                                    r="6.666666666666667" />
<circle cx="102.55241478454742"
                                    cy="149.23775059038013"
                                    r="6.666666666666667" />
<circle cx="57.60157254204705"
                                    cy="127.11897567559795"
                                    r="6.666666666666667" />
<circle cx="30.472091560293684"
                                    cy="106.38490388904881"
                                    r="6.666666666666667" />
<circle cx="77.03883185052204"
                                    cy="125.135540060928"
                                    r="6.666666666666667" />
<circle cx="50.309827288891036"
                                    cy="104.63117950927764"
                                    r="6.666666666666667" />
<circle cx="95.70269891458777"
                                    cy="126.20441440308174"
                                    r="6.666666666666667" />
<circle cx="68.9665316346004"
                                    cy="106.18030966925164"
                                    r="6.666666666666667" />
<circle cx="42.129242891713574"
                                    cy="86.35475392650372"
                                    r="6.666666666666667" />
<circle cx="115.00713645256704"
                                    cy="127.842813224358"
                                    r="6.666666666666667" />
<circle cx="64.03768528613018"
                                    cy="84.85410378686102"
                                    r="6.666666666666667" />
<circle cx="91.20838232103057"
                                    cy="104.32199962298928"
                                    r="6.666666666666667" />
<circle cx="56.45218860121184"
                                    cy="68.13527778451666"
                                    r="6.666666666666667" />
<circle cx="83.87644951506573"
                                    cy="87.59848042403162"
                                    r="6.666666666666667" />
<circle cx="111.6833853580735"
                                    cy="106.97370224455773"
                                    r="6.666666666666667" />
<circle cx="80.75266452722143"
                                    cy="67.52793057139144"
                                    r="6.666666666666667" />
<circle cx="73.16398795856591"
                                    cy="52.07875739791953"
                                    r="6.666666666666667" />
<circle cx="109.51367719309617"
                                    cy="87.03339627440366"
                                    r="6.666666666666667" />
<circle cx="101.85529814256924"
                                    cy="71.96674887151164"
                                    r="6.666666666666667" />
<circle cx="133.19763007972003"
                                    cy="111.05086937248798"
                                    r="6.666666666666667" />
<circle cx="100.02419694610971"
                                    cy="53.09897192738999"
                                    r="6.666666666666667" />
<circle cx="91.94151065167185"
                                    cy="38.4956529591117"
                                    r="6.666666666666667" />
<circle cx="131.93524451165814"
                                    cy="92.3086134227203"
                                    r="6.666666666666667" />
<circle cx="122.32906791102656"
                                    cy="59.78418835374945"
                                    r="6.666666666666667" />
<circle cx="131.10209070355603"
                                    cy="74.07500022398938"
                                    r="6.666666666666667" />
<circle cx="112.42168465946138"
                                    cy="27.64860002772373"
                                    r="6.666666666666667" />
<circle cx="121.35585916566527"
                                    cy="41.93890937051558"
                                    r="6.666666666666667" />
<circle cx="155.51854213064058"
                                    cy="100.34384728700975"
                                    r="6.666666666666667" />
<circle cx="134.20851641609693"
                                    cy="19.74733135150941"
                                    r="6.666666666666667" />
<circle cx="144.6440940189065"
                                    cy="51.43975073906454"
                                    r="6.666666666666667" />
</g><g 
                    style="fill: #2937B8; 
                    stroke-width: 0; 
                    stroke: #000000;" 
                    id="Scientific-Party_1"><title>Scientific Party</title><circle cx="155.19212481617956"
                                    cy="83.12601314664505"
                                    r="6.666666666666667" />
<circle cx="144.19816007284913"
                                    cy="34.335219569620534"
                                    r="6.666666666666667" />
<circle cx="154.96807567748198"
                                    cy="66.05038887375332"
                                    r="6.666666666666667" />
<circle cx="156.88074752834757"
                                    cy="14.944621587390333"
                                    r="6.666666666666667" />
<circle cx="168.08792598557315"
                                    cy="47.1998483794066"
                                    r="6.666666666666667" />
<circle cx="167.96269538764426"
                                    cy="30.483769116295065"
                                    r="6.666666666666667" />
<circle cx="179.99999999999997"
                                    cy="63.33333333333333"
                                    r="6.666666666666667" />
<circle cx="180"
                                    cy="13.333333333333325"
                                    r="6.666666666666667" />
<circle cx="180"
                                    cy="80"
                                    r="6.666666666666667" />
<circle cx="180"
                                    cy="96.66666666666666"
                                    r="6.666666666666667" />
<circle cx="192.03730461235577"
                                    cy="30.483769116295065"
                                    r="6.666666666666667" />
<circle cx="191.91207401442688"
                                    cy="47.1998483794066"
                                    r="6.666666666666667" />
<circle cx="203.11925247165246"
                                    cy="14.944621587390333"
                                    r="6.666666666666667" />
<circle cx="205.03192432251802"
                                    cy="66.05038887375332"
                                    r="6.666666666666667" />
<circle cx="215.80183992715092"
                                    cy="34.335219569620534"
                                    r="6.666666666666667" />
<circle cx="204.80787518382044"
                                    cy="83.12601314664505"
                                    r="6.666666666666667" />
<circle cx="215.3559059810935"
                                    cy="51.43975073906454"
                                    r="6.666666666666667" />
<circle cx="225.79148358390307"
                                    cy="19.74733135150941"
                                    r="6.666666666666667" />
<circle cx="204.48145786935942"
                                    cy="100.34384728700975"
                                    r="6.666666666666667" />
<circle cx="238.64414083433473"
                                    cy="41.93890937051556"
                                    r="6.666666666666667" />
<circle cx="247.5783153405386"
                                    cy="27.64860002772373"
                                    r="6.666666666666667" />
<circle cx="228.89790929644403"
                                    cy="74.0750002239894"
                                    r="6.666666666666667" />
<circle cx="237.6709320889735"
                                    cy="59.78418835374947"
                                    r="6.666666666666667" />
<circle cx="228.0647554883418"
                                    cy="92.30861342272028"
                                    r="6.666666666666667" />
<circle cx="268.0584893483282"
                                    cy="38.4956529591117"
                                    r="6.666666666666667" />
<circle cx="259.9758030538903"
                                    cy="53.09897192738999"
                                    r="6.666666666666667" />
<circle cx="226.80236992027997"
                                    cy="111.05086937248798"
                                    r="6.666666666666667" />
</g><g 
                    style="fill: #008D00; 
                    stroke-width: 0; 
                    stroke: #000000;" 
                    id="Agrarian-Party_2"><title>Agrarian Party</title><circle cx="258.1447018574308"
                                    cy="71.96674887151164"
                                    r="6.666666666666667" />
<circle cx="250.48632280690384"
                                    cy="87.03339627440369"
                                    r="6.666666666666667" />
<circle cx="286.8360120414341"
                                    cy="52.07875739791953"
                                    r="6.666666666666667" />
<circle cx="279.2473354727786"
                                    cy="67.52793057139145"
                                    r="6.666666666666667" />
<circle cx="248.31661464192652"
                                    cy="106.9737022445577"
                                    r="6.666666666666667" />
<circle cx="276.1235504849343"
                                    cy="87.59848042403164"
                                    r="6.666666666666667" />
<circle cx="303.5478113987882"
                                    cy="68.13527778451669"
                                    r="6.666666666666667" />
<circle cx="268.7916176789695"
                                    cy="104.32199962298928"
                                    r="6.666666666666667" />
<circle cx="295.9623147138698"
                                    cy="84.85410378686102"
                                    r="6.666666666666667" />
<circle cx="244.99286354743293"
                                    cy="127.84281322435797"
                                    r="6.666666666666667" />
<circle cx="317.8707571082864"
                                    cy="86.35475392650373"
                                    r="6.666666666666667" />
<circle cx="291.0334683653996"
                                    cy="106.18030966925167"
                                    r="6.666666666666667" />
<circle cx="264.29730108541224"
                                    cy="126.20441440308171"
                                    r="6.666666666666667" />
<circle cx="309.69017271110897"
                                    cy="104.63117950927767"
                                    r="6.666666666666667" />
<circle cx="282.961168149478"
                                    cy="125.135540060928"
                                    r="6.666666666666667" />
<circle cx="329.5279084397064"
                                    cy="106.38490388904881"
                                    r="6.666666666666667" />
<circle cx="302.39842745795295"
                                    cy="127.11897567559798"
                                    r="6.666666666666667" />
<circle cx="257.44758521545253"
                                    cy="149.2377505903801"
                                    r="6.666666666666667" />
<circle cx="320.07728789047593"
                                    cy="126.3497118623887"
                                    r="6.666666666666667" />
<circle cx="338.2938690208549"
                                    cy="127.83843552781218"
                                    r="6.666666666666667" />
<circle cx="275.00769810050406"
                                    cy="148.79844071775446"
                                    r="6.666666666666667" />
<circle cx="292.33498355080957"
                                    cy="148.50456252485992"
                                    r="6.666666666666667" />
</g><g 
                    style="fill: #CA9200; 
                    stroke-width: 0; 
                    stroke: #000000;" 
                    id="Youth-Party_3"><title>Youth Party</title><circle cx="309.855579405225"
                                    cy="149.74597092764216"
                                    r="6.666666666666667" />
<circle cx="326.8560942544208"
                                    cy="149.4502441853181"
                                    r="6.666666666666667" />
<circle cx="343.999144979893"
                                    cy="150.30053496034276"
                                    r="6.666666666666667" />
<circle cx="263.067376656753"
                                    cy="173.34752829321542"
                                    r="6.666666666666667" />
<circle cx="279.77818884970264"
                                    cy="173.3431967226697"
                                    r="6.666666666666667" />
<circle cx="296.4764494188889"
                                    cy="173.3405824669024"
                                    r="6.666666666666667" />
<circle cx="313.1668401707766"
                                    cy="173.33888472486638"
                                    r="6.666666666666667" />
<circle cx="329.8519737250991"
                                    cy="173.33772030816823"
                                    r="6.666666666666667" />
<circle cx="346.5334221871531"
                                    cy="173.33688718291552"
                                    r="6.666666666666667" />
</g></g></svg>